<svg width="511" height="528" viewBox="0 0 511 528" fill="none" xmlns="http://www.w3.org/2000/svg">
<path d="M329.41 0.00399971H49.41C23.058 0.00399971 0 21.414 0 49.414V477.644C0 503.996 23.059 527.054 49.41 527.054H329.41C357.41 527.054 378.82 503.995 378.82 477.644L378.824 49.414C378.824 21.414 357.41 0 329.41 0L329.41 0.00399971ZM181.18 444.714H82.356C72.4732 444.714 65.887 438.124 65.887 428.245C65.887 418.362 72.4768 411.776 82.356 411.776H181.18C191.063 411.776 197.649 418.366 197.649 428.245C197.649 438.128 191.063 444.714 181.18 444.714ZM289.89 378.831H82.36C72.4772 378.831 65.891 372.241 65.891 362.362C65.891 352.479 72.4808 345.893 82.36 345.893H289.89C299.773 345.893 306.359 352.483 306.359 362.362C306.359 372.245 298.125 378.831 289.89 378.831ZM296.476 312.948H82.3559C72.4731 312.948 65.8869 306.358 65.8869 296.479C65.8869 286.596 72.4767 280.01 82.3559 280.01H296.476C306.359 280.01 312.945 286.6 312.945 296.479C312.949 306.362 306.359 312.948 296.476 312.948ZM296.476 247.069H82.3559C72.4731 247.069 65.8869 240.479 65.8869 230.6C65.8869 220.717 72.4767 214.131 82.3559 214.131H296.476C306.359 214.131 312.945 220.721 312.945 230.6C312.949 240.479 306.359 247.069 296.476 247.069ZM296.476 181.186H82.3559C72.4731 181.186 65.8869 174.596 65.8869 164.717C65.8869 154.834 72.4767 148.248 82.3559 148.248H296.476C306.359 148.248 312.945 154.838 312.945 164.717C312.949 174.596 306.359 181.186 296.476 181.186ZM296.476 115.303H82.3559C72.4731 115.303 65.8869 108.713 65.8869 98.834C65.8869 88.9512 72.4767 82.365 82.3559 82.365H296.476C306.359 82.365 312.945 88.9548 312.945 98.834C312.949 108.713 306.359 115.303 296.476 115.303Z" fill="#DCB6FF"/>
<path d="M510.58 65.887V98.828H411.756V65.887C411.756 37.887 434.815 16.477 461.166 16.477C489.17 16.477 510.58 37.887 510.58 65.887Z" fill="#DCB6FF"/>
<path d="M411.76 130.125H510.584V423.305C510.584 426.598 510.584 428.246 508.936 429.895L475.995 499.071C472.702 504.012 467.76 508.954 461.171 508.954C454.581 508.954 449.64 505.661 446.347 499.071L413.406 429.895C411.757 428.246 411.757 424.953 411.757 423.305L411.76 130.125Z" fill="#DCB6FF"/>
</svg>
